{
    "name": "foundry-drmapzo-free",
    "title": "Dr. Mapzo free maps (unofficial)",
    "type": "module",
    "description": "Unofficial module with Dr. Mapzo's free maps prepared for Foundry VTT.  See their Patreon page at https://www.patreon.com/drmapzo/posts for many more maps, and more varieties!",
    "author": "Codesaru",
    "version": "0.19.1",
    "minimumCoreVersion": "0.7.5",
    "compatibleCoreVersion": "0.8.5",
    "url": "https://gitlab.com/Akaito1/foundry-drmapzo-free",
    "manifest": "https://gitlab.com/Akaito1/foundry-drmapzo-free/-/raw/master/module.json",
    "download": "https://gitlab.com/Akaito1/foundry-drmapzo-free/-/archive/v0.19.1/foundry-drmapzo-free-v0.19.1.zip",
    "packs": [
        {
            "name": "scenes",
            "label": "Scenes (Dr. Mapzo free)",
            "path": "./packs/scenes.db",
            "entity": "Scene"
        }
    ]
}

